{
   "content": [
      {
         "orderId": "864460a4-cfd8-4495-93ba-8d8492143c21",
         "country": "MEX",
         "state": "Bamyan",
         "city": "Ashkāsham",
         "street": "Tlalpan",
         "houseNumber": 226,
         "apartment": null,
         "floor": null,
         "total": 940,
         "orderTimestamp": "2024-04-16 13:55:09",
         "pizzaList": [{
            "pizzaName": "Pepperoni",
            "price": 140,
            "size": "MEDIUM",
            "quantity": 1,
            "pizzaIngredients": []
         },
         {
            "pizzaName": "Hawaiana",
            "price": 160,
            "size": "MEDIUM",
            "quantity": 1,
            "pizzaIngredients": []
         },
         {
            "pizzaName": "Margherita",
            "price": 640,
            "size": "MEDIUM",
            "quantity": 4,
            "pizzaIngredients": []
         }]
      }, {
         "orderId": "864460a4-cfd8-4495-93ba-8d8492143c22",
         "country": "MEX",
         "state": "Bamyan",
         "city": "Ashkāsham",
         "street": "Tlalpan",
         "houseNumber": 226,
         "apartment": null,
         "floor": null,
         "total": 940,
         "orderTimestamp": "2024-04-16 13:55:09",
         "pizzaList": [{
            "pizzaName": "Pepperoni",
            "price": 140,
            "size": "MEDIUM",
            "quantity": 1,
            "pizzaIngredients": []
         },
         {
            "pizzaName": "Hawaiana",
            "price": 160,
            "size": "MEDIUM",
            "quantity": 1,
            "pizzaIngredients": []
         },
         {
            "pizzaName": "Margherita",
            "price": 640,
            "size": "MEDIUM",
            "quantity": 4,
            "pizzaIngredients": []
         }]
      }, {
         "orderId": "864460a4-cfd8-4495-93ba-8d8492143c23",
         "country": "MEX",
         "state": "Bamyan",
         "city": "Ashkāsham",
         "street": "Tlalpan",
         "houseNumber": 226,
         "apartment": null,
         "floor": null,
         "total": 940,
         "orderTimestamp": "2024-04-16 13:55:09",
         "pizzaList": [{
            "pizzaName": "Pepperoni",
            "price": 140,
            "size": "MEDIUM",
            "quantity": 1,
            "pizzaIngredients": []
         },
         {
            "pizzaName": "Hawaiana",
            "price": 160,
            "size": "MEDIUM",
            "quantity": 1,
            "pizzaIngredients": []
         },
         {
            "pizzaName": "Margherita",
            "price": 640,
            "size": "MEDIUM",
            "quantity": 4,
            "pizzaIngredients": []
         }]
      }
   ],
   "pageable": {
      "pageNumber": 0,
      "pageSize": 5,
      "sort": [],
      "offset": 0,
      "paged": true,
      "unpaged": false
   },
   "totalPages": 9,
   "totalElements": 45,
   "last": false,
   "first": true,
   "size": 5,
   "number": 0,
   "sort": [],
   "numberOfElements": 5,
   "empty": false
}